// Jest Snapshot v1, https://goo.gl/fbAQLP

exports[`CountryCard Component Renders 1`] = `
<a
  href="/globalvacc/1"
>
  <div
    className="MuiPaper-root MuiCard-root makeStyles-root-1 MuiPaper-outlined MuiPaper-rounded"
  >
    <div
      className="MuiCardContent-root"
    >
      <div
        className="MuiCardMedia-root makeStyles-media-5"
        style={
          Object {
            "backgroundImage": "url(\\"https://upload.wikimedia.org/wikipedia/commons/9/9a/Flag_of_Afghanistan.svg\\")",
          }
        }
        title="flag"
      />
      <h2
        className="MuiTypography-root makeStyles-pos-4 MuiTypography-h6 MuiTypography-alignCenter"
      >
        <span>
          <span
            className=""
          >
            Afghanistan
          </span>
        </span>
      </h2>
      <p
        className="MuiTypography-root makeStyles-pos-4 MuiTypography-body1"
      >
        Capital:
         
        <span>
          <span
            className=""
          >
            Kabul
          </span>
        </span>
      </p>
      <p
        className="MuiTypography-root makeStyles-pos-4 MuiTypography-body1"
      >
        Population:
         
        <span>
          <span
            className=""
          >
            37,172,386
          </span>
        </span>
      </p>
      <p
        className="MuiTypography-root makeStyles-pos-4 MuiTypography-body1"
      >
        Number of Vaccinations:
         
        <span>
          <span
            className=""
          >
            54,000
          </span>
        </span>
      </p>
      <p
        className="MuiTypography-root makeStyles-pos-4 MuiTypography-body1"
      >
        Number of People Vaccinated:
         
        <span>
          <span
            className=""
          >
            54,000.0
          </span>
        </span>
      </p>
      <p
        className="MuiTypography-root makeStyles-pos-4 MuiTypography-body1"
      >
        Total Vaccinations Per 100:
         
        <span>
          <span
            className=""
          >
            N/A
          </span>
        </span>
      </p>
      <p
        className="MuiTypography-root makeStyles-pos-4 MuiTypography-body1"
      >
        Number of Approved Vaccines:
         
        <span>
          <span
            className=""
          >
            0
          </span>
        </span>
      </p>
    </div>
  </div>
</a>
`;

exports[`CountryGrid Component Renders 1`] = `
<div
  className="MuiGrid-root MuiGrid-container MuiGrid-spacing-xs-3 MuiGrid-justify-xs-center"
/>
`;

exports[`CountryGrid Component Renders 2`] = `
<div
  className="MuiGrid-root MuiGrid-container MuiGrid-spacing-xs-3 MuiGrid-justify-xs-center"
/>
`;
